{
  "project_info": {
    "project_number": "257742689802",
    "firebase_url": "https://testingfirebase-3b0d7.firebaseio.com",
    "project_id": "testingfirebase-3b0d7",
    "storage_bucket": "testingfirebase-3b0d7.appspot.com"
  },
  "client": [
    {
      "client_info": {
        "mobilesdk_app_id": "1:257742689802:android:90fc5d3fbd0c6ee4",
        "android_client_info": {
          "package_name": "com.example.lav.myapplication"
        }
      },
      "oauth_client": [
        {
          "client_id": "257742689802-e6borl1ko10kj50k6jdv5n10hqpup5tt.apps.googleusercontent.com",
          "client_type": 1,
          "android_info": {
            "package_name": "com.example.lav.myapplication",
            "certificate_hash": "3f3bab9f353f1c16fb8bf0f5365ef3ebd9d68a45"
          }
        },
        {
          "client_id": "257742689802-0f3t90dpbj5lcbrnl2ubdv5s3uaeld3b.apps.googleusercontent.com",
          "client_type": 3
        }
      ],
      "api_key": [
        {
          "current_key": "AIzaSyDQDR_pFYstEp49WykWF8ByKNqADH9DGfc"
        }
      ],
      "services": {
        "analytics_service": {
          "status": 1
        },
        "appinvite_service": {
          "status": 2,
          "other_platform_oauth_client": [
            {
              "client_id": "257742689802-0f3t90dpbj5lcbrnl2ubdv5s3uaeld3b.apps.googleusercontent.com",
              "client_type": 3
            }
          ]
        },
        "ads_service": {
          "status": 2
        }
      }
    }
  ],
  "configuration_version": "1"
}